{
    "gitlab-oauth": {
      "gitlab.com": "b4f2692037f695a27d98de6aeda6e7a53e970787dda2b86e1af759b9074e1e8a"
    },
    "bitbucket-oauth": {
        "bitbucket.org": {
            "consumer-key": "uSKPg3H2EuJt2WtsN7",
            "consumer-secret": "Uf4QgzgMbNK5HA5YhRRLkRccL8txNXKR",
            "access-token": "eb3TOAAvlLF8TF0x1sqyalzpKs-0V8OkNKTzEFo0PiUunyRR-k_TUEbAoM8BwmrkyFbThdGw7-fK6B5KQC4=",
            "access-token-expiration": 1530598215
        }
    }
}
